%YAML 1.1
%TAG !u! tag:unity3d.com,2011:
--- !u!1045 &1
EditorBuildSettings:
  m_ObjectHideFlags: 0
  serializedVersion: 2
  m_Scenes:
  - enabled: 0
    path: Assets/Scenes/1.unity
    guid: f2ad93b12c75b4247a10a5a1abdb3b81
  - enabled: 1
    path: Assets/Scenes/MainMenu.unity
    guid: 0fdc8d23dbf0e4eb0813d06ef12cc540
  - enabled: 1
    path: Assets/Scenes/Main Scene.unity
    guid: 98b1218f9095843d5b99dbb9ebc8802c
